7zip 24.09-3
alacritty 0.15.1-1
alacritty-themes 6.0.2-1
alsa-firmware 1.2.4-4
alsa-plugins 1:1.2.12-4
alsa-utils 1.2.13-2
amd-ucode 20250210.5bc5868b-1
anki 25.02-1
arandr 0.1.11-4
arc-darkest-theme-git r172.c8bdaead59-1
arc-gtk-theme 20221218-2
arch-install-scripts 29-1
archinstall 3.0.2-2
archiso 82-1
archlinux-logout-git 25.02-01
archlinux-tweak-tool-git 25.02-21
arcolinux-alacritty-git 23.12-01
arcolinux-bin-git 25.01-03
arcolinux-bootloader-grub-git 24.11-01
arcolinux-bspwm-git 24.12-01
arcolinux-common-git 23.09-01
arcolinux-config-all-desktops-git 23.06-01
arcolinux-dconf-all-desktops-git 24.04-02
arcolinux-fonts-git 23.06-01
arcolinux-grub-theme-vimix-git 20230305-03
arcolinux-hblock-git 3.5.0-1
arcolinux-keyring 20251209-3
arcolinux-local-xfce4-git 25.02-01
arcolinux-mirrorlist-git 24.03-12
arcolinux-nitrogen-git 23.06-01
arcolinux-polybar-git 23.11-02
arcolinux-sddm-simplicity-git 25.02-01
arcolinux-volumeicon-git 23.06-01
arcolinux-wallpapers-git 24.11-01
arcolinux-welcome-app-git 25.02-21
arconet-wallpapers 24.11-01
arconet-xfce 25.01-01
arj 3.10.22-14
atop 2.11.0-1
awesome-terminal-fonts 1.1.0-5
b43-fwcutter 019-6
base 3-2
base-devel 1-2
base16-alacritty-git r19.914727e-1
bash-completion 2.16.0-1
bat 0.25.0-4
bcachefs-tools 3:1.20.0-1
bibata-cursor-theme-bin 2.0.7-1
bind 9.20.6-1
bitwarden 2025.1.3-1
blueberry 1.4.8-2
bluez 5.79-1
bluez-utils 5.79-1
bolt 0.9.8-1
brave-bin 1:1.75.181-1
bridge-utils 1.7.1-2
brltty 6.7-5
broadcom-wl 6.30.223.271-607
bspwm 0.9.10-4
btrfs-progs 6.13-1
cabextract 1.11-2
chaotic-keyring 20230616-1
chaotic-mirrorlist 20240724-2
chromium 133.0.6943.141-1
chromium-widevine 1:4.10.2830.0-1
clock-rs-git r94.g676ad01-1
clonezilla 5.6.13-1
cloud-init 24.3.1-3
cryptsetup 2.7.5-2
cups 2:2.4.11-2
cups-pdf 3.0.1-8
darkhttpd 1.16-2
dconf-editor 45.0.1-2
ddrescue 1.29-1
dex 0.9.0-2
dhclient 4.4.3.P1-4
dhcpcd 10.2.0-1
dialog 1:1.3_20250116-1
diffutils 3.11-1
discord 0.0.87-1
dkms 3.1.5-1
dmenu 5.3-3
dmidecode 3.6-1
dmraid 1.0.0.rc16.3-15
dnsmasq 2.90-2
dosfstools 4.2-5
downgrade 11.4.4-1
dropbox 214.4.5217-1
duf 0.8.1-3
dunst 1.12.1-1
e2fsprogs 1.47.2-1
edk2-shell 202411-1
efibootmgr 18-3
epson-inkjet-printer-escpr 1.8.6-1.1
epson-inkjet-printer-escpr2 1.2.27-1
espeakup 0.90-3
ethtool 1:6.11-1
exfatprogs 1.2.7-1
expac 10-11
f2fs-tools 1.16.0-3
fastfetch 2.37.0-1
fatresize 1.1.0-2
fcitx5 5.1.12-1
fcitx5-gtk 5.1.3-1
fcitx5-mozc 2.31.5712.102.g9dc8247-3
fcitx5-qt 5.1.9-1
feh 3.10.3-1
file-roller 44.5-1
firefox 135.0.1-1
flameshot 12.1.0-5
fsarchiver 0.8.8-1
ghostscript 10.04.0-1
git 2.48.1-2
git-credential-manager-bin 2.6.1-1
gksu 2.0.2-6
gnu-efi 3.0.18-2
gpart 0.3-5
gpm 1.20.7.r38.ge82d1a6-6
gptfdisk 1.0.10-1
grml-zsh-config 0.19.14-1
grub 2:2.12-3
gsfonts 20200910-4
gst-plugins-bad 1.24.12-3
gst-plugins-base 1.24.12-3
gst-plugins-good 1.24.12-3
gst-plugins-ugly 1.24.12-3
gstreamer 1.24.12-3
gutenprint 5.3.4-3
gvfs 1.56.1-3
hdparm 9.65-2
hunspell-en_us 2020.12.07-5
hyperv 6.13-1
imagewriter 1.10.1432200249.1d253d9.2.21-1
intel-ucode 20250211-1
iptables-nft 1:1.8.10-2
irssi 1.4.5-4
iw 6.9-1
iwd 3.4-1
jfsutils 1.1.15-9
jq 1.7.1-2
kdb 3.2.0-15
kitty 0.39.1-1
kitty-terminfo 0.39.1-1
kora-icon-theme 1.6.3-1
ldns 1.8.4-1
less 1:668-1
lftp 4.9.3-1
libfido2 1.15.0-1
libreoffice-fresh 25.2.1-2
libusb-compat 0.1.8-2
linux 6.13.5.arch1-1
linux-atm 2.5.2-9
linux-firmware 20250210.5bc5868b-1
linux-firmware-marvell 20250210.5bc5868b-1
livecd-sounds 1.0-3
lsscsi 0.32-2
lvm2 2.03.31-1
lynx 2.9.2-1
man-db 2.13.0-1
man-pages 6.12-1
mc 4.8.33-1
mdadm 4.4-1
meld 3.22.3-1
memtest86+ 7.20-2
memtest86+-efi 7.20-2
micro 2.0.14-1
mkinitcpio 39.2-3
mkinitcpio-firmware 1.4.0-1
mkinitcpio-nfs-utils 0.3-8
mkinitcpio-openswap 0.1.0-3
modemmanager 1.22.0-1
mtools 1:4.0.48-1
nano 8.3-1
nasm 2.16.03-1
nbd 3.26.1-2
ndisc6 1.0.8-1
networkmanager 1.52.0-1
nfs-utils 2.8.2-2
nilfs-utils 2.2.11-1
nitrogen 1.6.1-6
nmap 7.95-1
noto-fonts 1:2025.03.01-1
noto-fonts-cjk 20240730-1
ntfs-3g 2022.10.3-1
numlockx 1.2-6
nvme-cli 2.11-1
open-iscsi 2.1.11-1
openconnect 1:9.12-3
openpgp-card-tools 0.11.8-1
openssh 9.9p2-1
openvpn 2.6.13-1
os-prober 1.83-1
otf-ipafont 003.03-8
pacman-hook-kernel-install 0.13.0-1
pacseek-bin 1.8.4-1
pamixer 1.6-3
partclone 0.3.33-1
parted 3.6-2
partimage 0.6.9-15
pavucontrol 1:6.1-1
pcsclite 2.3.1-1
picom 12.5-1
playerctl 2.4.1-4
polybar 3.7.2-2
ppp 2.5.2-1
pptpclient 1.10.0-3
psutils 3.3.9-1
pulseaudio 17.0+r43+g3e2bb8a1e-1
pulseaudio-alsa 1:1.2.12-4
pulseaudio-bluetooth 17.0+r43+g3e2bb8a1e-1
pv 1.9.31-1
python-gnupg 0.5.4-2
python-i3ipc 2.2.1-8
python-pyqt5 5.15.11-2
python-pywal 3.3.0-10
python-setuptools 1:75.8.0-1
python-xlib 0.33-4
qemu-full 9.2.0-2
qt6-tools-desktop 6.8.0-2
rate-mirrors 0.18.0-1
rebornos-keyring 20231128-1
rebornos-mirrorlist 20241016-1
refind 0.14.2-1
reflector 2023-3
ripgrep 14.1.1-1
rofi 1.7.8-2
rp-pppoe 4.0-4
rsync 3.4.1-2
rxvt-unicode-terminfo 9.31-6
screen 5.0.0-2
sddm 0.21.0-6
sdparm 1.12-1
sequoia-sq 1.2.0-1
sg3_utils 1.48-1
sharutils 4.15.2-5
smartmontools 7.4-2
sof-firmware 2025.01-1
spotify 1:1.2.56.502-1
squashfs-tools 4.6.1-2
starship 1.22.1-1
sublime-text-4 4.4192-1
sudo 1.9.16.p2-2
sutils-git 35-2
sxhkd 0.6.2-4
syslinux 6.04.pre3.r3.g05ac953c-3
system-config-printer 1.5.18-5
systemctl-tui 0.4.0-1
systemd-resolvconf 257.3-1
tcpdump 4.99.5-1
terminus-font 4.49.1-7
testdisk 7.2-2
thunar 4.20.2-1
thunar-archive-plugin 0.5.3-1
thunar-volman 4.20.0-2
tk 8.6.16-1
tmux 3.5_a-1
tpm2-tools 5.7-1
tpm2-tss 4.1.3-1
tree 2.2.1-1
ttf-font-awesome 6.7.2-1
ttf-hack 3.003-7
ttf-hack-nerd 3.3.0-1
ttf-jetbrains-mono 2.304-2
ttf-nerd-fonts-symbols 3.3.0-1
ttf-roboto-mono 3.000-3
tumbler 4.20.0-2
udftools 2.3-2
udiskie 2.5.7-1
unace 2.5-11
unrar 1:7.1.5-1
unzip 6.0-22
usb_modeswitch 2.6.2-1
usbmuxd 1.1.1-4
usbutils 018-1
virt-manager 5.0.0-1
virt-viewer 11.0-3
volumeicon 0.5.1-7
vpnc 1:0.5.3.r539.r239-1
waterfox-bin 6.5.4-2
wget 1.25.0-1
wireless-regdb 2025.02.20-1
wireless_tools 30.pre9-4
wpa_supplicant 2:2.11-3
wps-office 11.1.0.11723-1
wps-office-mime 11.1.0.11723-1
wttr 1.55.r0.g36893b1-1
wvdial 1.61-9
xdg-desktop-portal 1.20.0-1
xdg-desktop-portal-gtk 1.15.2-1
xdg-user-dirs 0.18-2
xdo 0.5.7-3
xfsprogs 6.13.0-1
xl2tpd 1.3.18-2
xorg-bdftopcf 1.1.2-1
xorg-iceauth 1.0.10-1
xorg-mkfontscale 1.2.3-1
xorg-server 21.1.16-1
xorg-sessreg 1.1.3-2
xorg-setxkbmap 1.3.4-2
xorg-smproxy 1.0.7-2
xorg-x11perf 1.7.0-1
xorg-xauth 1.1.3-1
xorg-xbacklight 1.2.4-1
xorg-xcmsdb 1.0.7-1
xorg-xcursorgen 1.0.8-2
xorg-xdpyinfo 1.3.4-2
xorg-xdriinfo 1.0.7-2
xorg-xev 1.2.6-1
xorg-xgamma 1.0.7-2
xorg-xhost 1.0.10-1
xorg-xinit 1.4.3-1
xorg-xinput 1.6.4-2
xorg-xkbcomp 1.4.7-1
xorg-xkbevd 1.1.6-1
xorg-xkbprint 1.0.7-1
xorg-xkbutils 1.0.6-1
xorg-xkill 1.0.6-2
xorg-xlsatoms 1.1.4-2
xorg-xlsclients 1.1.5-2
xorg-xmodmap 1.0.11-2
xorg-xpr 1.2.0-1
xorg-xrandr 1.5.3-1
xorg-xrdb 1.2.2-2
xorg-xrefresh 1.1.0-1
xorg-xsetroot 1.1.3-2
xorg-xvinfo 1.1.5-2
xorg-xwd 1.0.9-2
xorg-xwininfo 1.1.6-2
xorg-xwud 1.0.7-1
xtitle-git 47-1
yad 14.1-2
yay-git 12.4.2.r39.gd2c67ae0-1
yazi 25.2.26-1
zen-browser-bin 1.8.2b-1
zip 3.0-11
zsh 5.9-5
